<svg width="13" height="15" viewBox="0 0 13 15" fill="none" xmlns="http://www.w3.org/2000/svg">
<rect y="6" width="13" height="3" rx="1.5" fill="#B8B3B3"/>
<rect x="5" y="14" width="13" height="3" rx="1.5" transform="rotate(-90 5 14)" fill="#B8B3B3"/>
</svg>
