<svg width="47" height="47" viewBox="0 0 47 47" fill="none" xmlns="http://www.w3.org/2000/svg">
<path fill-rule="evenodd" clip-rule="evenodd" d="M3.86467 27.6917C0.322069 2.43318 30.8359 -5.77895 41.5131 14.8927L45.6139 14.8926C35.3869 -10.7831 -7.45727 -1.97937 1.13023 31.4734L19.977 31.3208C26.4681 30.3811 25.1477 21.6644 19.3375 22.5819L9.27458 22.353C8.09823 19.3592 11.8145 20.348 20.5897 20.348L23.569 16.4957C12.3402 16.8262 5.40879 15.2011 4.83516 20.348C4.36027 24.8793 7.49272 25.6704 13.4573 25.299C18.2972 25.2685 19.7434 25.1086 19.8764 26.5128C20.0079 27.9033 17.9346 27.6578 16.1207 27.6574L3.86467 27.6917V27.6917Z" fill="white"/>
<path fill-rule="evenodd" clip-rule="evenodd" d="M46.1283 16.5471L26.8528 16.5929L24.0991 20.3479H30.419V31.8876H35.2943L35.2887 20.3479H43.149C45.6844 42.529 17.4298 52.3871 5.85071 33.2786H1.92334C14.2731 58.9973 53.2953 45.7933 46.1283 16.5472V16.5471Z" fill="#8EBA2C"/>
<path fill-rule="evenodd" clip-rule="evenodd" d="M24.077 16.5332L21.218 20.5018H21.9892L24.9423 16.5332H24.077Z" fill="white"/>
<path fill-rule="evenodd" clip-rule="evenodd" d="M25.4313 16.5332L22.5723 20.5018H23.3435L26.2965 16.5332H25.4313Z" fill="white"/>
</svg>
